title,href,author,date
Controverse en commum,https://www.pavillon-arsenal.com/fr/et-demain-on-fait-quoi/11786-controverse-en-commum.html,Franck Boutté Consultants,30 juin 2020
Re Source,https://www.pavillon-arsenal.com/fr/et-demain-on-fait-quoi/11785-re-source.html,Maud Caubet,30 juin 2020
habit@,https://www.pavillon-arsenal.com/fr/et-demain-on-fait-quoi/11784-habit.html,Maria João Pita,30 juin 2020
Post-covid?,https://www.pavillon-arsenal.com/fr/et-demain-on-fait-quoi/11790-post-covid.html,Francis Nordemann,30 juin 2020
"Le temps de l'éthique, du dialogue et de la conscience retrouvée",https://www.pavillon-arsenal.com/fr/et-demain-on-fait-quoi/11783-le-temps-de-lethique-du-dialogue-et-de-la-conscience-retrouvee.html,Carmen Santana,30 juin 2020
La forêt réserve en ville,https://www.pavillon-arsenal.com/fr/et-demain-on-fait-quoi/11782-la-foret-reserve-en-ville.html,Caracalla Architectes,30 juin 2020
Se (dé)construire,https://www.pavillon-arsenal.com/fr/et-demain-on-fait-quoi/11781-se-deconstruire.html,Collectif Nuée,30 juin 2020
"Et demain, on défait quoi ?",https://www.pavillon-arsenal.com/fr/et-demain-on-fait-quoi/11780-et-demain-on-defait-quoi.html,Victor Petit et L'Atelier Senzu,30 juin 2020
Penser demain : un luxe ? une nécessité ? un impératif ?,https://www.pavillon-arsenal.com/fr/et-demain-on-fait-quoi/11779-penser-demain-un-luxe-une-necessite-un-imperatif.html,Céline Monvoisin,30 juin 2020
Ce qu’on n’a pas fait hier,https://www.pavillon-arsenal.com/fr/et-demain-on-fait-quoi/11778-ce-quon-na-pas-fait-hier.html,Elizabeth de Portzamparc,30 juin 2020
Nouvelles temporalités pour une mobilité post-covid,https://www.pavillon-arsenal.com/fr/et-demain-on-fait-quoi/11776-nouvelles-temporalites-pour-une-mobilite-post-covid.html,Pablo Carreras,30 juin 2020
Dystopies et utopies pandémiques,https://www.pavillon-arsenal.com/fr/et-demain-on-fait-quoi/11777-dystopies-et-utopies-pandemiques.html,Farid Azib + Coletivo Cidade em Aberto,30 juin 2020
Et maintenant place à l’action !,https://www.pavillon-arsenal.com/fr/et-demain-on-fait-quoi/11775-et-maintenant-place-a-laction.html,Intersections,30 juin 2020
De l’hyper-centre à l’hyper-ballade,https://www.pavillon-arsenal.com/fr/et-demain-on-fait-quoi/11774-de-lhyper-centre-a-lhyper-ballade.html,Antoine Ceunebroucke et Geoffrey Desplaces,30 juin 2020
Ne pas céder à la tentation,https://www.pavillon-arsenal.com/fr/et-demain-on-fait-quoi/11773-ne-pas-ceder-a-la-tentation.html,Ingrid Taillandier,30 juin 2020
Investissons les espaces communs !,https://www.pavillon-arsenal.com/fr/et-demain-on-fait-quoi/11772-investissons-les-espaces-communs.html,"ALT, Anton Bardoula et Aurélia Trutet",30 juin 2020
Périmètre de l’espace temps,https://www.pavillon-arsenal.com/fr/et-demain-on-fait-quoi/11771-perimetre-de-lespace-temps.html,Justine Lipski,29 juin 2020
Quadriptyque sans titre,https://www.pavillon-arsenal.com/fr/et-demain-on-fait-quoi/11770-quadriptyque-sans-titre.html,Pascale Van Romphey,29 juin 2020
On ralentit,https://www.pavillon-arsenal.com/fr/et-demain-on-fait-quoi/11787-on-ralentit.html,Vincent Gillot,29 juin 2020
Une école du réemploi : pour un Green New Deal de la construction,https://www.pavillon-arsenal.com/fr/et-demain-on-fait-quoi/11769-une-ecole-du-reemploi-pour-un-green-new-deal-de-la-construction.html,Clara et Philippe Simay,29 juin 2020
Les Vieux et la Ville,https://www.pavillon-arsenal.com/fr/et-demain-on-fait-quoi/11768-les-vieux-et-la-ville.html,Michel Guthmann,29 juin 2020
La ville e(s)t l’usine,https://www.pavillon-arsenal.com/fr/et-demain-on-fait-quoi/11767-la-ville-est-lusine.html,Carrière Didier Gazeau,29 juin 2020
Vert désir,https://www.pavillon-arsenal.com/fr/et-demain-on-fait-quoi/11766-vert-desir.html,Arte Charpentier Architectes,26 juin 2020
Le jour d’après : comment enseigner l’architecture ?,https://www.pavillon-arsenal.com/fr/et-demain-on-fait-quoi/11765-le-jour-dapres-comment-enseigner-larchitecture.html,Florence Sarano,25 juin 2020
Conte d'un architecte-navet,https://www.pavillon-arsenal.com/fr/et-demain-on-fait-quoi/11764-conte-dun-architecte-navet.html,Anthony Authié,25 juin 2020
PLUS,https://www.pavillon-arsenal.com/fr/et-demain-on-fait-quoi/11763-plus.html,Cristina Chelarescu,25 juin 2020
Pour une architecture (ou)verte à l’incertitude d’une culture du durable et de l'espace,https://www.pavillon-arsenal.com/fr/et-demain-on-fait-quoi/11762-pour-une-architecture-ouverte-a-lincertitude-dune-culture-du-durable-et-de-lespace.html,Olivier Palatre,24 juin 2020
Demain,https://www.pavillon-arsenal.com/fr/et-demain-on-fait-quoi/11756-demain.html,Cecile Mescam,23 juin 2020
Let's play !,https://www.pavillon-arsenal.com/fr/et-demain-on-fait-quoi/11753-lets-play.html,Aude Fraïoli-Marçal,22 juin 2020
Il est l’heure de se sentir bien chez soi,https://www.pavillon-arsenal.com/fr/et-demain-on-fait-quoi/11752-il-est-lheure-de-se-sentir-bien-chez-soi.html,Benjamin Delaux,19 juin 2020
Espaces sans qualités,https://www.pavillon-arsenal.com/fr/et-demain-on-fait-quoi/11751-espaces-sans-qualites.html,Schultearchitekten,19 juin 2020
La (re)découverte du local,https://www.pavillon-arsenal.com/fr/et-demain-on-fait-quoi/11750-la-redecouverte-du-local.html,Nathan Daunit et Joséphine Parreau,19 juin 2020
La ville des métiers 2,https://www.pavillon-arsenal.com/fr/et-demain-on-fait-quoi/11749-la-ville-des-metiers-2.html,SAA Architectes,19 juin 2020
Santé urbaine et protection de l’environnement : Même combat !,https://www.pavillon-arsenal.com/fr/et-demain-on-fait-quoi/11748-sante-urbaine-et-protection-de-lenvironnement-meme-combat.html,Yann Moisan et Marine Gouezel,18 juin 2020
"L’immobilier, un bien commun",https://www.pavillon-arsenal.com/fr/et-demain-on-fait-quoi/11747-limmobilier-un-bien-commun.html,"Alexandre Born, Sébastien de Hulster, François Gendre, Jérémie Loevenbruck, Olympe Rabaté",17 juin 2020
"Cité du théâtre, théâtre de la cité",https://www.pavillon-arsenal.com/fr/et-demain-on-fait-quoi/11746-cite-du-theatre-theatre-de-la-cite.html,Thibault Sinay,17 juin 2020
Impressions d'une capitale suspendue,https://www.pavillon-arsenal.com/fr/et-demain-on-fait-quoi/11745-impressions-dune-capitale-suspendue.html,Lucas Nine,17 juin 2020
Dans quel monde vivons-nous !,https://www.pavillon-arsenal.com/fr/et-demain-on-fait-quoi/11744-dans-quel-monde-vivons-nous.html,A26,2617 juin 2020
Distancing Stadium,https://www.pavillon-arsenal.com/fr/et-demain-on-fait-quoi/11734-distancing-stadium.html,Sophie Costa,17 juin 2020
"La ville, trois fois augmentée",https://www.pavillon-arsenal.com/fr/et-demain-on-fait-quoi/11729-la-ville-trois-fois-augmentee.html,Marco Cremaschi et Yodan Rofè,16 juin 2020
Les villes doivent offrir davantage d’espace et de nature,https://www.pavillon-arsenal.com/fr/et-demain-on-fait-quoi/11728-les-villes-doivent-offrir-davantage-despace-et-de-nature.html,Mathieu Morio,13 juin 2020
Habiter local,https://www.pavillon-arsenal.com/fr/et-demain-on-fait-quoi/11727-habiter-local.html,Sébastien L'Hoste,12 juin 2020
Bâtir en terre et en fibres végétales : redonner du sens à nos vies et à nos métiers,https://www.pavillon-arsenal.com/fr/et-demain-on-fait-quoi/11726-batir-en-terre-et-en-fibres-vegetales-redonner-du-sens-a-nos-vies-et-a-nos-metiers.html,Amàco,12 juin 2020
Monde vivant,https://www.pavillon-arsenal.com/fr/et-demain-on-fait-quoi/11725-monde-vivant.html,Marie Wathelet et Nicolas Waechter,11 juin 2020
Le jour d'après - Réalité et utopie,https://www.pavillon-arsenal.com/fr/et-demain-on-fait-quoi/11723-le-jour-dapres-realite-et-utopie.html,Bernard Boyer,11 juin 2020
Couvre-feu,https://www.pavillon-arsenal.com/fr/et-demain-on-fait-quoi/11720-couvre-feu.html,Esteban Ulrich,9 juin 2020
Et si on parlait un peu de gouvernance… ?,https://www.pavillon-arsenal.com/fr/et-demain-on-fait-quoi/11721-et-si-on-parlait-un-peu-de-gouvernance.html,Daniel Andersch,9 juin 2020
"Demain, on répare",https://www.pavillon-arsenal.com/fr/et-demain-on-fait-quoi/11719-demain-on-repare.html,Atelier Aïno,9 juin 2020
S’adapter vs. anticiper,https://www.pavillon-arsenal.com/fr/et-demain-on-fait-quoi/11715-sadapter-vs-anticiper.html,Susanne Eliasson,9 juin 2020
"Paris - Campagne, une alliance à retrouver",https://www.pavillon-arsenal.com/fr/et-demain-on-fait-quoi/11718-paris-campagne-une-alliance-a-retrouver.html,"Cyril Brulé, Peggy Garcia, Mathieu Mercuriali",8 juin 2020
Inventer la « Nouvelle Normalité »,https://www.pavillon-arsenal.com/fr/et-demain-on-fait-quoi/11717-inventer-la-nouvelle-normalite.html,Thomas Coldefy,8 juin 2020
"Vers un nouveau modèle de travail, de logement et de transport",https://www.pavillon-arsenal.com/fr/et-demain-on-fait-quoi/11716-vers-un-nouveau-modele-de-travail-de-logement-et-de-transport.html,Didier Jeanneau,7 juin 2020
De la matière à réfléchir,https://www.pavillon-arsenal.com/fr/et-demain-on-fait-quoi/11714-de-la-matiere-a-reflechir.html,Hervé Ellena et Stéphanie Mehl,5 juin 2020
Penser la pérennisation du logement pour les réfugiés,https://www.pavillon-arsenal.com/fr/et-demain-on-fait-quoi/11713-penser-la-perennisation-du-logement-pour-les-refugies.html,Marjorie Casez,3 juin 2020
La loi du plus fort l’emporte t-elle toujours ?,https://www.pavillon-arsenal.com/fr/et-demain-on-fait-quoi/11712-la-loi-du-plus-fort-lemporte-t-elle-toujours.html,Johane Riachi,3 juin 2020
La ville des fertiles,https://www.pavillon-arsenal.com/fr/et-demain-on-fait-quoi/11707-la-ville-des-fertiles.html,Merci Raymond,2 juin 2020
"Et demain, quel appareil critique ?",https://www.pavillon-arsenal.com/fr/et-demain-on-fait-quoi/11706-et-demain-quel-appareil-critique.html,Luc Izri,1er juin 2020
"La ville idéale n’existe pas, seule la ville sur mesure existe..",https://www.pavillon-arsenal.com/fr/et-demain-on-fait-quoi/11705-la-ville-ideale-nexiste-pas-seule-la-ville-sur-mesure-existe.html,MCBAD,1er juin 2020
Le temps de la Ville Accueillante,https://www.pavillon-arsenal.com/fr/et-demain-on-fait-quoi/11704-le-temps-de-la-ville-accueillante.html,Cyrille Hanappe et Olivier Leclercq,31 mai 2020
Repenser la ville par le vide - la matrice des espaces libres,https://www.pavillon-arsenal.com/fr/et-demain-on-fait-quoi/11702-repenser-la-ville-par-le-vide-la-matrice-des-espaces-libres.html,Mélanie Gasté,29 mai 2020
Architecture post-COVID : vers un retour aux sources du modernisme ?,https://www.pavillon-arsenal.com/fr/et-demain-on-fait-quoi/11701-architecture-post-covid-vers-un-retour-aux-sources-du-modernisme.html,Pierre Châtel-Innocenti,28 mai 2020
« Quelle chance ! »,https://www.pavillon-arsenal.com/fr/et-demain-on-fait-quoi/11700--quelle-chance.html,Frédéric Quevillon,28 mai 2020
Augmentation pavillonnaire,https://www.pavillon-arsenal.com/fr/et-demain-on-fait-quoi/11699-augmentation-pavillonnaire.html,Florent Chagny,27 mai 2020
Manifeste pour l’innovation sociale,https://www.pavillon-arsenal.com/fr/et-demain-on-fait-quoi/11698-manifeste-pour-linnovation-sociale.html,Benjamin Loiseau,27 mai 2020
Et si on ne faisait rien?,https://www.pavillon-arsenal.com/fr/et-demain-on-fait-quoi/11697-et-si-on-ne-faisait-rien.html,Helena Hiriart,27 mai 2020
Il n’est pas trop tard pour habiter ! Il n’est pas trop tard pour aimer !,https://www.pavillon-arsenal.com/fr/et-demain-on-fait-quoi/11696-il-nest-pas-trop-tard-pour-habiter-il-nest-pas-trop-tard-pour-aimer.html,Yvann Pluskwa,27 mai 2020
Mieux avec moins !,https://www.pavillon-arsenal.com/fr/et-demain-on-fait-quoi/11695-mieux-avec-moins.html,Philippe Madec,26 mai 2020
Penser pour panser,https://www.pavillon-arsenal.com/fr/et-demain-on-fait-quoi/11694-penser-pour-panser.html,Constellations Studio,26 mai 2020
Le jour d'après,https://www.pavillon-arsenal.com/fr/et-demain-on-fait-quoi/11682-le-jour-dapres.html,Paul Chemetov,25 mai 2020
"Herbes sauvages et urbanisme, une cohabitation prometteuse !",https://www.pavillon-arsenal.com/fr/et-demain-on-fait-quoi/11688-herbes-sauvages-et-urbanisme-une-cohabitation-prometteuse.html,Chantal Guézet,25 mai 2020
L’expérience d’un remède,https://www.pavillon-arsenal.com/fr/et-demain-on-fait-quoi/11693-lexperience-dun-remede.html,Émeric Lambert,25 mai 2020
Humains urbains,https://www.pavillon-arsenal.com/fr/et-demain-on-fait-quoi/11692-humains-urbains.html,Thierry Payet,25 mai 2020
Faire patrimoine,https://www.pavillon-arsenal.com/fr/et-demain-on-fait-quoi/11691-faire-patrimoine.html,Simon Campedel et Mathias Gervais de Lafond,25 mai 2020
Désajustements. Repositionnement.,https://www.pavillon-arsenal.com/fr/et-demain-on-fait-quoi/11690-desajustements-repositionnement.html,Louis Caux,24 mai 2020
Pour une nouvelle éthique humaniste : l’attention à la sensualité,https://www.pavillon-arsenal.com/fr/et-demain-on-fait-quoi/11681-pour-une-nouvelle-ethique-humaniste-lattention-a-la-sensualite.html,Thibaut Robert,19 mai 2020
Et demain on fait quoi sur l’espace public ?,https://www.pavillon-arsenal.com/fr/et-demain-on-fait-quoi/11680-et-demain-on-fait-quoi-sur-lespace-public.html,Elise Arnoux,19 mai 2020
"Après le confinement, la renaissance?",https://www.pavillon-arsenal.com/fr/et-demain-on-fait-quoi/11678-apres-le-confinement-la-renaissance.html,Julien Dossier,19 mai 2020
Rêves d’égalité et clapiers de rêves…,https://www.pavillon-arsenal.com/fr/et-demain-on-fait-quoi/11677-reves-degalite-et-clapiers-de-reves.html,Vladimir Doray et Benjamin Gauthier,18 mai 2020
Questions prioritaires d'urbanite (QPU),https://www.pavillon-arsenal.com/fr/et-demain-on-fait-quoi/11676-questions-prioritaires-durbanite-qpu.html,Camille Hagège,18 mai 2020
Rinascimento !,https://www.pavillon-arsenal.com/fr/et-demain-on-fait-quoi/11675-rinascimento.html,Ugo Nocera,17 mai 2020
Immeubles à partager,https://www.pavillon-arsenal.com/fr/et-demain-on-fait-quoi/11673-immeubles-a-partager.html,Belval & Parquet Architectes,16 mai 2020
Dénombrilisés,https://www.pavillon-arsenal.com/fr/et-demain-on-fait-quoi/11674-denombrilises.html,Dominique Julien,16 mai 2020
Réaliser enfin la Métropole de Paris résiliente pour tous,https://www.pavillon-arsenal.com/fr/et-demain-on-fait-quoi/11672-realiser-enfin-la-metropole-de-paris-resiliente-pour-tous.html,Antoine Soulier-Thomazeau,16 mai 2020
Non,https://www.pavillon-arsenal.com/fr/et-demain-on-fait-quoi/11671-non.html,Marie Vadecard-Bestaux,16 mai 2020
Un journal de l'enseignement du projet en confinement,https://www.pavillon-arsenal.com/fr/et-demain-on-fait-quoi/11670-un-journal-de-lenseignement-du-projet-en-confinement.html,Ronan Kerdreux,16 mai 2020
« Eutopie » urbaine post-COVID : de la MO.VIDA à la CO.VIDA ?,https://www.pavillon-arsenal.com/fr/et-demain-on-fait-quoi/11669--eutopie-urbaine-post-covid-de-la-movida-a-la-covida.html,Benjamin Hecht,16 mai 2020
“Cette crise révèle la pertinence du concept de ville-métabolisme”,https://www.pavillon-arsenal.com/fr/et-demain-on-fait-quoi/11668-cette-crise-revele-la-pertinence-du-concept-de-ville-metabolisme.html,Philippe Chiambaretta,15 mai 2020
La période est riche en devins et prophètes,https://www.pavillon-arsenal.com/fr/et-demain-on-fait-quoi/11667-la-periode-est-riche-en-devins-et-prophetes.html,Daniel Vaniche,15 mai 2020
La nécessité d'une prise de conscience collective,https://www.pavillon-arsenal.com/fr/et-demain-on-fait-quoi/11666-la-necessite-dune-prise-de-conscience-collective.html,Hugo Franck,14 mai 2020
Il est temps de considérer le logement comme un bien de première nécessité,https://www.pavillon-arsenal.com/fr/et-demain-on-fait-quoi/11665-il-est-temps-de-considerer-le-logement-comme-un-bien-de-premiere-necessite.html,Pascal Rollet,14 mai 2020
Revisiter les qualités d’une architecture post-moderne méprisée,https://www.pavillon-arsenal.com/fr/et-demain-on-fait-quoi/11662-revisiter-les-qualites-dune-architecture-post-moderne-meprisee.html,Jean-Louis Violeau,14 mai 2020
Du gris dans nos villes,https://www.pavillon-arsenal.com/fr/et-demain-on-fait-quoi/11661-du-gris-dans-nos-villes.html,Valentin Bourdon,14 mai 2020
La Terre brûle … là est la solution !,https://www.pavillon-arsenal.com/fr/et-demain-on-fait-quoi/11660-la-terre-brule-la-est-la-solution.html,Telmo Escapil-Inchauspé et Guilhem Solère,13 mai 2020
Atlas of Plans,https://www.pavillon-arsenal.com/fr/et-demain-on-fait-quoi/11659-atlas-of-plans.html,Lucas Huvet et Thomas Chagué,13 mai 2020
La Ville - encore la Ville,https://www.pavillon-arsenal.com/fr/et-demain-on-fait-quoi/11658-la-ville-encore-la-ville.html,"Bernard Quirot, Giacomo Guidotti, Frédéric Einaudi",13 mai 2020
Crise de risques,https://www.pavillon-arsenal.com/fr/et-demain-on-fait-quoi/11657-crise-de-risques.html,Nicola Delon,13 Mai 2020
Sacrée Matière!,https://www.pavillon-arsenal.com/fr/et-demain-on-fait-quoi/11656-sacree-matiere.html,"Catalina Trujillo, Bérenger Chaumont, Kristina Hakala, Grégory Lebourdais, Nastia Yombo",13 mai 2020
BTP : évitons le retour à l’anormal !,https://www.pavillon-arsenal.com/fr/et-demain-on-fait-quoi/11655-btp-evitons-le-retour-a-lanormal.html,Christine Leconte,12 mai 2020
La ville différente se construira avec l’architecture!,https://www.pavillon-arsenal.com/fr/et-demain-on-fait-quoi/11654-la-ville-differente-se-construira-avec-larchitecture.html,Carine Robert,12 mai 2020
Notre prison brûle et nous regardons ailleurs,https://www.pavillon-arsenal.com/fr/et-demain-on-fait-quoi/11652-notre-prison-brule-et-nous-regardons-ailleurs.html,Nassim Moussi,12 mai 2020
As light as possible ! *,https://www.pavillon-arsenal.com/fr/et-demain-on-fait-quoi/11653-as-light-as-possible-*.html,DATA ARCHITECTES,12 mai 2020
Le temps de faire,https://www.pavillon-arsenal.com/fr/et-demain-on-fait-quoi/11651-le-temps-de-faire.html,Méandre-ETC architecture,12 mai 2020
The commond grid : la ville nourricière,https://www.pavillon-arsenal.com/fr/et-demain-on-fait-quoi/11642-the-commond-grid-la-ville-nourriciere.html,SAME,12 mai 2020
"Plus que jamais: rénover, réhabiliter, restructurer , reconvertir...",https://www.pavillon-arsenal.com/fr/et-demain-on-fait-quoi/11650-plus-que-jamais-renover-rehabiliter-restructurer-reconvertir.html,Antoine Renaud,12 mai 2020
"Faire société, faire lieu, faire lien",https://www.pavillon-arsenal.com/fr/et-demain-on-fait-quoi/11649-faire-societe-faire-lieu-faire-lien.html,DVTup,11 mai 2020
Vivant,https://www.pavillon-arsenal.com/fr/et-demain-on-fait-quoi/11648-vivant.html,Jade Sénéchal,11 mai 2020
Prisonniers volontaires...,https://www.pavillon-arsenal.com/fr/et-demain-on-fait-quoi/11647-prisonniers-volontaires.html,NOMAA,11 mai 2020
CO-VIDES,https://www.pavillon-arsenal.com/fr/et-demain-on-fait-quoi/11646-co-vides.html,Vincent Chevalier,11 mai 2020
Pour une Architecture Vivante : L’Aula Modula,https://www.pavillon-arsenal.com/fr/et-demain-on-fait-quoi/11663-pour-une-architecture-vivante-laula-modula.html,Studio BELEM,11 mai 2020
Le rôle de l'habitant demain,https://www.pavillon-arsenal.com/fr/et-demain-on-fait-quoi/11645-le-role-de-lhabitant-demain.html,Lydia B. Yubero,11 mai 2020
Habiter sans se cogner,https://www.pavillon-arsenal.com/fr/et-demain-on-fait-quoi/11644-habiter-sans-se-cogner.html,Collectif sens,10 mai 2020
Après la crise : pour un urbanisme démocratique,https://www.pavillon-arsenal.com/fr/et-demain-on-fait-quoi/11643-apres-la-crise-pour-un-urbanisme-democratique.html,iudo,10 mai 2020
La Galerie Bienvenue,https://www.pavillon-arsenal.com/fr/et-demain-on-fait-quoi/11641-la-galerie-bienvenue.html,Gabriel Chareton,10 mai 2020
Repeupler l'architecture ou comment dé-confiner nos pratiques,https://www.pavillon-arsenal.com/fr/et-demain-on-fait-quoi/11640-repeupler-larchitecture-ou-comment-de-confiner-nos-pratiques.html,Guillaume Rohart,10 mai 2020
Le monde d'après,https://www.pavillon-arsenal.com/fr/et-demain-on-fait-quoi/11639-le-monde-dapres.html,Alice Stevens,9 mai 2020
L'ovni sur le parking,https://www.pavillon-arsenal.com/fr/et-demain-on-fait-quoi/11638-lovni-sur-le-parking.html,Jonathan Walter,9 mai 2020
Seule la beauté pourra soigner le monde !,https://www.pavillon-arsenal.com/fr/et-demain-on-fait-quoi/11637-seule-la-beaute-pourra-soigner-le-monde.html,Jean-Yves Quay,8 mai 2020
A propos de l'inertie (flatten the curve),https://www.pavillon-arsenal.com/fr/et-demain-on-fait-quoi/11634-a-propos-de-linertie-flatten-the-curve.html,Nicolas Dorval-Bory,8 mai 2020
Quand l’urbain se fige le rural prend la relève,https://www.pavillon-arsenal.com/fr/et-demain-on-fait-quoi/11633-quand-lurbain-se-fige-le-rural-prend-la-releve.html,Violette Soleilhac,8 mai 2020
"Activer les communs, ouvrir la ville",https://www.pavillon-arsenal.com/fr/et-demain-on-fait-quoi/11632-activer-les-communs-ouvrir-la-ville.html,Anne-Elisabeth Bertucci et Florence Dollé,8 mai 2020
Constellation du vivant,https://www.pavillon-arsenal.com/fr/et-demain-on-fait-quoi/11631-constellation-du-vivant.html,Demain architecture paysage + Tropiques,7 mai 2020
Chantiers sains...chantiers sales,https://www.pavillon-arsenal.com/fr/et-demain-on-fait-quoi/11630-chantiers-sainschantiers-sales.html,Michel Kada'an Bourdeau,7 mai 2020
"Pour ouvrir une brèche frugale, heureuse et créative",https://www.pavillon-arsenal.com/fr/et-demain-on-fait-quoi/11629-pour-ouvrir-une-breche-frugale-heureuse-et-creative.html,Frugalité heureuse et créative,7 mai 2020
"L’ensauvagement, le non humain et les zones d’activités",https://www.pavillon-arsenal.com/fr/et-demain-on-fait-quoi/11627-lensauvagement-le-non-humain-et-les-zones-dactivites.html,"Baptiste Wullschleger, Philippe Benoit et Damien Morel",7 mai 2020
"Faire le vide ensemble, #COVID",https://www.pavillon-arsenal.com/fr/et-demain-on-fait-quoi/11628-faire-le-vide-ensemble-covid.html,Guillaume Hannoun,7 mai 2020
Êtes-vous topophile ?,https://www.pavillon-arsenal.com/fr/et-demain-on-fait-quoi/11626-etes-vous-topophile.html,"Camille Morin, Martin Paquot et Raphael Pauschitz",7 mai 2020
Le grand bout de la lorgnette,https://www.pavillon-arsenal.com/fr/et-demain-on-fait-quoi/11625-le-grand-bout-de-la-lorgnette.html,Timothée Turquin et Vivien Garié,7 mai 2020
La ville entre parenthèse,https://www.pavillon-arsenal.com/fr/et-demain-on-fait-quoi/11624-la-ville-entre-parenthese.html,Pauline Vermeille,7 mai 2020
Ville pathologique / réinventons la ville normale,https://www.pavillon-arsenal.com/fr/et-demain-on-fait-quoi/11664-ville-pathologique-reinventons-la-ville-normale.html,Fair,7 mai 2020
On le fait Ensemble...,https://www.pavillon-arsenal.com/fr/et-demain-on-fait-quoi/11622-on-le-fait-ensemble.html,Alban Simonet,6 mai 2020
La culture de la mauvaise herbe,https://www.pavillon-arsenal.com/fr/et-demain-on-fait-quoi/11621-la-culture-de-la-mauvaise-herbe.html,Jean Bocabeille,6 mai 2020
Ouverture de chantier pour le monde d'après,https://www.pavillon-arsenal.com/fr/et-demain-on-fait-quoi/11620-ouverture-de-chantier-pour-le-monde-dapres.html,PEROU,6 mai 2020
"“Demain, on fait quoi ?” dit-il.  On se lève et on arrive en ville.",https://www.pavillon-arsenal.com/fr/et-demain-on-fait-quoi/11619-demain-on-fait-quoi-dit-il-on-se-leve-et-on-arrive-en-ville.html,Alice Frémeaux,6 mai 2020
Constats sur le jeu dans la ville confinée et l'espoir de dessiner un monde d'après,https://www.pavillon-arsenal.com/fr/et-demain-on-fait-quoi/11618-constats-sur-le-jeu-dans-la-ville-confinee-et-lespoir-de-dessiner-un-monde-dapres.html,Antoine d’Argentré,6 mai 2020
"2050, l'âge d'or",https://www.pavillon-arsenal.com/fr/et-demain-on-fait-quoi/11617-2050-lage-dor.html,Jacques de Courson,6 mai 2020
Necessitas,https://www.pavillon-arsenal.com/fr/et-demain-on-fait-quoi/11616-necessitas.html,MESURE,6 mai 2020
Avant le jour d'après,https://www.pavillon-arsenal.com/fr/et-demain-on-fait-quoi/11615-avant-le-jour-dapres.html,Marc Mimram,6 mai 2020
On parle déjà du monde d'après,https://www.pavillon-arsenal.com/fr/et-demain-on-fait-quoi/11614-on-parle-deja-du-monde-dapres.html,Emmanuelle Patte,6 mai 2020
L´Avènement de la ville nature,https://www.pavillon-arsenal.com/fr/et-demain-on-fait-quoi/11613-lavenement-de-la-ville-nature.html,"Guillaume Sibaud, Olivier Raffaelli",5 mai 2020
"Construire Moins, Penser Plus, vers une architecture de la post-croissance",https://www.pavillon-arsenal.com/fr/et-demain-on-fait-quoi/11612-construire-moins-penser-plus-vers-une-architecture-de-la-post-croissance.html,Rico d'Ascia,5 mai 2020
Graines,https://www.pavillon-arsenal.com/fr/et-demain-on-fait-quoi/11606-graines.html,Grégoire Bassinet,5 mai 2020
Quand la ville a disparu...,https://www.pavillon-arsenal.com/fr/et-demain-on-fait-quoi/11609-quand-la-ville-a-disparu.html,Eric de Thoisy,5 mai 2020
SUPERCOPRO,https://www.pavillon-arsenal.com/fr/et-demain-on-fait-quoi/11607-supercopro.html,Julien Boursier et Mélusine Hucault,4 mai 2020
Plaidoyer pour un milieu vernaculaire urbain,https://www.pavillon-arsenal.com/fr/et-demain-on-fait-quoi/11600-plaidoyer-pour-un-milieu-vernaculaire-urbain.html,Hector Docarragal Montero,4 mai 2020
La fenÊTRE pour renÊTRE,https://www.pavillon-arsenal.com/fr/et-demain-on-fait-quoi/11602-la-fenetre-pour-renetre.html,Clémence Laville,4 mai 2020
"Non, la ville dense n’a pas trahi ses habitants…",https://www.pavillon-arsenal.com/fr/et-demain-on-fait-quoi/11601-non-la-ville-dense-na-pas-trahi-ses-habitants.html,Matthias Navarro,4 mai 2020
"Et si le changement, c’était maintenant ?",https://www.pavillon-arsenal.com/fr/et-demain-on-fait-quoi/11599-et-si-le-changement-cetait-maintenant.html,Clément Willemin,3 mai 2020
Incertitude et Chaos,https://www.pavillon-arsenal.com/fr/et-demain-on-fait-quoi/11598-incertitude-et-chaos.html,MLAV.LAND,3 mai 2020
Exode Urbain,https://www.pavillon-arsenal.com/fr/et-demain-on-fait-quoi/11597-exode-urbain.html,Emma Carvalho de Oliveira et Thomas Jorion,2 mai 2020
Autonomie : Pour une architecture plus complexe et plus partagée,https://www.pavillon-arsenal.com/fr/et-demain-on-fait-quoi/11596-autonomie-pour-une-architecture-plus-complexe-et-plus-partagee.html,Aldric Beckmann,2 mai 2020
Le grenier et la tombe,https://www.pavillon-arsenal.com/fr/et-demain-on-fait-quoi/11595-le-grenier-et-la-tombe.html,Paul Landauer,2 mai 2020
"Ethique et immobilier, les jours d’après…",https://www.pavillon-arsenal.com/fr/et-demain-on-fait-quoi/11594-ethique-et-immobilier-les-jours-dapres.html,Emmanuel Versini,2 mai 2020
Vieillir et mourir en ville…commentaires sur la condition sénile urbaine,https://www.pavillon-arsenal.com/fr/et-demain-on-fait-quoi/11593-vieillir-et-mourir-en-villecommentaires-sur-la-condition-senile-urbaine.html,Morgan Pouliza,1er mai 2020
La ville : stade zéro de la succession écologique,https://www.pavillon-arsenal.com/fr/et-demain-on-fait-quoi/11592-la-ville-stade-zero-de-la-succession-ecologique.html,Baptiste Miremont,30 avril 2020
Salons urbains,https://www.pavillon-arsenal.com/fr/et-demain-on-fait-quoi/11589-salons-urbains.html,Nicolas Guérin,30 avril 2020
Face à l’incertitude,https://www.pavillon-arsenal.com/fr/et-demain-on-fait-quoi/11588-face-a-lincertitude.html,Architecturestudio,30 avril 2020
Règles pour le parc humain,https://www.pavillon-arsenal.com/fr/et-demain-on-fait-quoi/11587-regles-pour-le-parc-humain.html,Philippe Rahm,29 avril 2020
Vers des villes plus inclusives ?,https://www.pavillon-arsenal.com/fr/et-demain-on-fait-quoi/11586-vers-des-villes-plus-inclusives.html,CITY Linked,29 avril 2020
Bâtiment Ressource,https://www.pavillon-arsenal.com/fr/et-demain-on-fait-quoi/11582-batiment-ressource.html,Chartier Dalix,29 avril 2020
"Le bâti post Covid-19, multifonctionnel et résilient",https://www.pavillon-arsenal.com/fr/et-demain-on-fait-quoi/11579-le-bati-post-covid-19-multifonctionnel-et-resilient.html,Arnaud Billard,29 avril 2020
"Ô temps, suspends ton vol",https://www.pavillon-arsenal.com/fr/et-demain-on-fait-quoi/11581-o-temps-suspends-ton-vol.html,Dimitri Boulte,29 avril 2020
Une pleine conscience,https://www.pavillon-arsenal.com/fr/et-demain-on-fait-quoi/11578-une-pleine-conscience.html,Nicolas Chabanne,28 avril 2020
Eden Shelter,https://www.pavillon-arsenal.com/fr/et-demain-on-fait-quoi/11583-eden-shelter.html,Valérie Romboni,28 avril 2020
"Beam Me Up, Scotty !",https://www.pavillon-arsenal.com/fr/et-demain-on-fait-quoi/11580-beam-me-up-scotty.html,Stéphane Maupin,28 avril 2020
Série [Séclusion],https://www.pavillon-arsenal.com/fr/et-demain-on-fait-quoi/11563-serie-seclusion.html,Pierre de Montigny,28 avril 2020
Un urbanisme agricole pour réhabiliter le vivant et repolitiser l’alimentation,https://www.pavillon-arsenal.com/fr/et-demain-on-fait-quoi/11577-un-urbanisme-agricole-pour-rehabiliter-le-vivant-et-repolitiser-lalimentation.html,Sylvain Gouraud et Augustin Rosenstiehl,28 avril 2020
Les petites capitales rurales,https://www.pavillon-arsenal.com/fr/et-demain-on-fait-quoi/11576-les-petites-capitales-rurales.html,Anne-Claire Le Vaillant,27 avril 2020
"Ne pas oublier, se remettre au travail et rêver",https://www.pavillon-arsenal.com/fr/et-demain-on-fait-quoi/11605-ne-pas-oublier-se-remettre-au-travail-et-rever.html,Séméio architecture,27 avril 2020
Quels moyens d'action pour les acteurs privés?,https://www.pavillon-arsenal.com/fr/et-demain-on-fait-quoi/11635-quels-moyens-daction-pour-les-acteurs-prives.html,ID&AL groupe,27 avril 2020
Quel avenir pour les Outre-mer après la pandémie de Covid-19 ?,https://www.pavillon-arsenal.com/fr/et-demain-on-fait-quoi/11575-quel-avenir-pour-les-outre-mer-apres-la-pandemie-de-covid-19.html,Clément Payet,26 avril 2020
Après le Covid-19 : « réinventer » l’aménagement du territoire,https://www.pavillon-arsenal.com/fr/et-demain-on-fait-quoi/11574-apres-le-covid-19-reinventer-lamenagement-du-territoire.html,"Gérard-François Dumont, Francine Paponnaud",26 avril 2020
Confinement : aspiration à l'EnVol,https://www.pavillon-arsenal.com/fr/et-demain-on-fait-quoi/11573-confinement-aspiration-a-lenvol.html,Eric Cassar,25 avril 2020
Architecture non-standard,https://www.pavillon-arsenal.com/fr/et-demain-on-fait-quoi/11572-architecture-non-standard.html,Sonia Costes,24 avril 2020
24h d’une ville confinée,https://www.pavillon-arsenal.com/fr/et-demain-on-fait-quoi/11571-24h-dune-ville-confinee.html,Chloé Bordjah et Félix Roudier,24 avril 2020
Faire place à de nouvelles architectures du stock et de la production,https://www.pavillon-arsenal.com/fr/et-demain-on-fait-quoi/11558-faire-place-a-de-nouvelles-architectures-du-stock-et-de-la-production.html,"SYVIL, atelier d'architecture et d'urbanisme",24 avril 2020
L’architecte doit réinventer son métier pour dessiner le monde de demain,https://www.pavillon-arsenal.com/fr/et-demain-on-fait-quoi/11569-larchitecte-doit-reinventer-son-metier-pour-dessiner-le-monde-de-demain.html,Shama Boudhabhay,24 Avril 2020
Nos villes et nos hôpitaux : le devoir collectif d’un état des lieux,https://www.pavillon-arsenal.com/fr/et-demain-on-fait-quoi/11570-nos-villes-et-nos-hopitaux-le-devoir-collectif-dun-etat-des-lieux.html,SCAU,24 avril 2020
Demain autrement ?,https://www.pavillon-arsenal.com/fr/et-demain-on-fait-quoi/11567-demain-autrement.html,Daniel Kaufman,23 avril 2020
La stratégie du renforcement métropolitain est elle une stratégie dépassée ?,https://www.pavillon-arsenal.com/fr/et-demain-on-fait-quoi/11604-la-strategie-du-renforcement-metropolitain-est-elle-une-strategie-depassee.html,Florence Paris,23 avril 2020
Vers une capacité de transformation collective augmentée,https://www.pavillon-arsenal.com/fr/et-demain-on-fait-quoi/11566-vers-une-capacite-de-transformation-collective-augmentee.html,Benjamin Cimerman,23 avril 2020
Pour contrecarrer l’obsolescence programmée de nos villes,https://www.pavillon-arsenal.com/fr/et-demain-on-fait-quoi/11538-pour-contrecarrer-lobsolescence-programmee-de-nos-villes.html,Nicolas Ledoux,22 avril 2020
"Demain (maintenant), l’espace public",https://www.pavillon-arsenal.com/fr/et-demain-on-fait-quoi/11539-demain-maintenant-lespace-public.html,Vraiment Vraiment,22 avril 2020
C’est le moment de changer la vie-lle,https://www.pavillon-arsenal.com/fr/et-demain-on-fait-quoi/11557-cest-le-moment-de-changer-la-vie-lle.html,Claire Flurin et Catherine Sabbah,22 avril 2020
Réflexion organisationnelle en trois points,https://www.pavillon-arsenal.com/fr/et-demain-on-fait-quoi/11564-reflexion-organisationnelle-en-trois-points.html,Dr. Christophe Gobin,22 avril 2020
Une nouvelle sensibilité pour l’habitat domestique,https://www.pavillon-arsenal.com/fr/et-demain-on-fait-quoi/11562-une-nouvelle-sensibilite-pour-lhabitat-domestique.html,Alice Braggion et Alessandro Carabini,22 avril 2020
"Appel aux architectes, paysagistes, maîtres d'ouvrage...",https://www.pavillon-arsenal.com/fr/et-demain-on-fait-quoi/11561-appelaux-architectes-paysagistesmaitresdouvrage.html,Myriam Szwarc,21 avril 2020
"Grand paris, vous n'avez pas les bases",https://www.pavillon-arsenal.com/fr/et-demain-on-fait-quoi/11560-grand-paris-vous-navez-pas-les-bases.html,Philippe Benoit,21 avril 2020
"Aménagement, subst, masc",https://www.pavillon-arsenal.com/fr/et-demain-on-fait-quoi/11559-amenagement-subst-masc.html,Atelier Prosper,21 avril 2020
Immeuble autonome - Fiction sur l'après,https://www.pavillon-arsenal.com/fr/et-demain-on-fait-quoi/11536-immeuble-autonome-fiction-sur-lapres.html,Charles Renault,21 avril 2020
A la recherche du principe actif de la Ville,https://www.pavillon-arsenal.com/fr/et-demain-on-fait-quoi/11534-a-la-recherche-du-principe-actif-de-la-ville.html,Séverine Chapus et Madeleine Masse,21 avril 2020
Dès aujourd'hui,https://www.pavillon-arsenal.com/fr/et-demain-on-fait-quoi/11537-des-aujourdhui.html,Francis Landron,21 avril 2020
Les grandes lignes d’un monde EC0-Responsable(S),https://www.pavillon-arsenal.com/fr/et-demain-on-fait-quoi/11535-les-grandes-lignes-dun-monde-ec0-responsables.html,Sharon Hobby,20 avril 2020
"Après la crise, la densité quantitative doit laisser place à la densité sensible",https://www.pavillon-arsenal.com/fr/et-demain-on-fait-quoi/11527-apres-la-crise-la-densite-quantitative-doit-laisser-place-a-la-densite-sensible.html,Jacques Ferrier,20 avril 2020
PARIS + SAIN,https://www.pavillon-arsenal.com/fr/et-demain-on-fait-quoi/11610-paris-sain.html,Laurène Moraglia,20 avril 2020
Violence du Rebond,https://www.pavillon-arsenal.com/fr/et-demain-on-fait-quoi/11528-violence-du-rebond.html,Matthieu Poitevin,19 avril 2020
La résilience de notre modèle urbain en question,https://www.pavillon-arsenal.com/fr/et-demain-on-fait-quoi/11530-la-resilience-de-notre-modele-urbain-en-question.html,Benjamin Taveau,18 avril 2020
Atelier pédagogique citoyen de culture fruitière urbaine,https://www.pavillon-arsenal.com/fr/et-demain-on-fait-quoi/11603-atelier-pedagogique-citoyen-de-culture-fruitiere-urbaine.html,Hervé Mauclère,18 avril 2020
Milou en Mars,https://www.pavillon-arsenal.com/fr/et-demain-on-fait-quoi/11526-milou-en-mars.html,Raphaël Ménard,18 avril 2020
